…
    ## Warning: There were 43 warnings in `mutate()`.
    ## The first warning was:
    ## ℹ In argument: `results = map(fit, ~tidy(.x, conf.int = TRUE, exponentiate =
    ##   TRUE))`.
    ## Caused by warning:
    ## ! glm.fit: fitted probabilities numerically 0 or 1 occurred
    ## ℹ Run `dplyr::last_dplyr_warnings()` to see the 42 remaining warnings.

``` r
city_or_df
```

    ## # A tibble: 47 × 8
    ##    city_state    term  estimate std.error statistic   p.value conf.low conf.high
    ##    <fct>         <chr>    <dbl>     <dbl>     <dbl>     <dbl>    <dbl>     <dbl>
    ##  1 Albuquerque,… vict…    1.77      0.385  1.48     1.39 e- 1    0.825     3.76 
    ##  2 Atlanta, GA   vict…    1.00      0.194  0.000397 1.000e+ 0    0.680     1.46 
    ##  3 Baltimore, MD vict…    0.426     0.138 -6.18     6.26 e-10    0.324     0.558
    ##  4 Baton Rouge,… vict…    0.381     0.306 -3.15     1.65 e- 3    0.204     0.684
    ##  5 Birmingham, … vict…    0.870     0.212 -0.657    5.11 e- 1    0.571     1.31 
    ##  6 Boston, MA    vict…    0.674     0.326 -1.21     2.26 e- 1    0.353     1.28 
    ##  7 Buffalo, NY   vict…    0.521     0.299 -2.18     2.90 e- 2    0.288     0.936
    ##  8 Charlotte, NC vict…    0.884     0.236 -0.524    6.00 e- 1    0.551     1.39 
    ##  9 Chicago, IL   vict…    0.410     0.102 -8.77     1.86 e-18    0.336     0.501
    ## 10 Cincinnati, … vict…    0.400     0.269 -3.41     6.49 e- 4    0.231     0.667
    ## # ℹ 37 more rows
…
